…
Read and preview the data

``` r
## read data
data <- drop_read_rds("congress_tweets/tml1.rds")

## preview data
tibble::as_tibble(data) %>%
  select(user_id:source)
#> # A tibble: 329,089 x 6
#>    user_id  status_id    created_at          screen_name text                             source   
#>    <chr>    <chr>        <dttm>              <chr>       <chr>                            <chr>    
#>  1 3026622… 10123388153… 2018-06-28 14:15:56 RepAmata    Talofa! Here's a quick YouTube … Twitter …
#>  2 3026622… 10123369602… 2018-06-28 14:08:34 RepAmata    Talofa! This week is a busy one… Twitter …
#>  3 3026622… 10123347151… 2018-06-28 13:59:39 RepAmata    Talofa! This week, I spoke on t… Twitter …
#>  4 3026622… 10123338351… 2018-06-28 13:56:09 RepAmata    Talofa! A bill led by Chairman … Twitter …
#>  5 3026622… 10084876886… 2018-06-17 23:12:56 RepAmata    Talofa! Congratulations to @ton… Twitter …
#>  6 3026622… 10000495143… 2018-05-25 16:22:38 RepAmata    Talofa! This week, a bill passe… Twitter …
#>  7 3026622… 99970193558… 2018-05-24 17:21:29 RepAmata    Talofa! My office had the honor… TweetDeck
#>  8 3026622… 99213436009… 2018-05-03 20:10:39 RepAmata    This Asian Pacific American Her… Twitter …
#>  9 3026622… 98844551140… 2018-04-23 15:52:29 RepAmata    Happy birthday to @USArmyReserv… Twitter …
#> 10 3026622… 98667264455… 2018-04-18 18:27:44 RepAmata    I am deeply saddened by the pas… TweetDeck
#> # ... with 329,079 more rows
…
